%YAML 1.1
%TAG !u! tag:unity3d.com,2011:
--- !u!74 &7400000
AnimationClip:
  m_ObjectHideFlags: 0
  m_CorrespondingSourceObject: {fileID: 0}
  m_PrefabInstance: {fileID: 0}
  m_PrefabAsset: {fileID: 0}
  m_Name: Knight_Idle
  serializedVersion: 6
  m_Legacy: 0
  m_Compressed: 0
  m_UseHighQualityCurve: 1
  m_RotationCurves: []
  m_CompressedRotationCurves: []
  m_EulerCurves: []
  m_PositionCurves: []
  m_ScaleCurves: []
  m_FloatCurves: []
  m_PPtrCurves:
  - curve:
    - time: 0
      value: {fileID: 21300000, guid: e6a72d6b351ddee49b0be28bb4dd19b5, type: 3}
    - time: 0.2
      value: {fileID: 21300000, guid: 341db3cdeef312d4e9ae83fc4420a38a, type: 3}
    - time: 0.4
      value: {fileID: 21300000, guid: 03ff85b928a180a4f918dbe033920eba, type: 3}
    - time: 0.6
      value: {fileID: 21300000, guid: 3bfa19d35bacf1f49811474c4d127956, type: 3}
    - time: 0.8
      value: {fileID: 21300000, guid: f3aafa6e3ebd1254db6ab64f9eb761f8, type: 3}
    attribute: m_Sprite
    path: 
    classID: 212
    script: {fileID: 0}
  m_SampleRate: 60
  m_WrapMode: 0
  m_Bounds:
    m_Center: {x: 0, y: 0, z: 0}
    m_Extent: {x: 0, y: 0, z: 0}
  m_ClipBindingConstant:
    genericBindings:
    - serializedVersion: 2
      path: 0
      attribute: 0
      script: {fileID: 0}
      typeID: 212
      customType: 23
      isPPtrCurve: 1
    pptrCurveMapping:
    - {fileID: 21300000, guid: e6a72d6b351ddee49b0be28bb4dd19b5, type: 3}
    - {fileID: 21300000, guid: 341db3cdeef312d4e9ae83fc4420a38a, type: 3}
    - {fileID: 21300000, guid: 03ff85b928a180a4f918dbe033920eba, type: 3}
    - {fileID: 21300000, guid: 3bfa19d35bacf1f49811474c4d127956, type: 3}
    - {fileID: 21300000, guid: f3aafa6e3ebd1254db6ab64f9eb761f8, type: 3}
  m_AnimationClipSettings:
    serializedVersion: 2
    m_AdditiveReferencePoseClip: {fileID: 0}
    m_AdditiveReferencePoseTime: 0
    m_StartTime: 0
    m_StopTime: 0.81666666
    m_OrientationOffsetY: 0
    m_Level: 0
    m_CycleOffset: 0
    m_HasAdditiveReferencePose: 0
    m_LoopTime: 1
    m_LoopBlend: 0
    m_LoopBlendOrientation: 0
    m_LoopBlendPositionY: 0
    m_LoopBlendPositionXZ: 0
    m_KeepOriginalOrientation: 0
    m_KeepOriginalPositionY: 1
    m_KeepOriginalPositionXZ: 0
    m_HeightFromFeet: 0
    m_Mirror: 0
  m_EditorCurves: []
  m_EulerEditorCurves: []
  m_HasGenericRootTransform: 0
  m_HasMotionFloatCurves: 0
  m_Events: []
